com\mycompany\projectsbd\PlotKadivUI$4.class
com\mycompany\projectsbd\KaryawanUI$4.class
com\mycompany\projectsbd\PangkatUI$4.class
com\mycompany\projectsbd\PlotKadivUI$1.class
com\mycompany\projectsbd\PangkatUI$1.class
com\mycompany\projectsbd\ProkerUI$6.class
com\mycompany\projectsbd\PlotSpvUI$5.class
com\mycompany\projectsbd\PlotSpvUI.class
com\mycompany\projectsbd\BerandaUI.class
com\mycompany\projectsbd\KaryawanUI$1.class
com\mycompany\projectsbd\ProkerUI$3.class
com\mycompany\projectsbd\txtSearch.class
com\mycompany\projectsbd\PlotKadivUI.class
com\mycompany\projectsbd\PlotPKUI$4.class
com\mycompany\projectsbd\PlotProkerUI$1.class
com\mycompany\projectsbd\DivisiUI$3.class
com\mycompany\projectsbd\PlotPKUI$1.class
com\mycompany\projectsbd\DivisiUI$6.class
com\mycompany\projectsbd\KeahlianUI$2.class
com\mycompany\projectsbd\DataUI$5.class
com\mycompany\projectsbd\BerandaUI$3.class
com\mycompany\projectsbd\KaryawanUI.class
com\mycompany\projectsbd\PlotProkerUI$4.class
com\mycompany\projectsbd\MainUI$8.class
com\mycompany\projectsbd\DataUI$2.class
com\mycompany\projectsbd\MainUI$10.class
com\mycompany\projectsbd\PlotPawasUI$4.class
com\mycompany\projectsbd\MainUI$5.class
com\mycompany\projectsbd\KaryawanUI$2.class
com\mycompany\projectsbd\DataUI$1.class
com\mycompany\projectsbd\PlotKadivUI$2.class
com\mycompany\projectsbd\MainUI$1.class
com\mycompany\projectsbd\ProkerUI$1.class
com\mycompany\projectsbd\MyTextField.class
com\mycompany\projectsbd\PlotPawasUI$5.class
com\mycompany\projectsbd\PangkatUI$6.class
com\mycompany\projectsbd\KaryawanUI$3.class
com\mycompany\projectsbd\PlotPKUI.class
com\mycompany\projectsbd\BerandaUI$1.class
com\mycompany\projectsbd\DivisiUI.class
com\mycompany\projectsbd\KeahlianUI$1.class
com\mycompany\projectsbd\MainUI$6.class
com\mycompany\projectsbd\PlotSpvUI$6.class
com\mycompany\projectsbd\DataUI.class
com\mycompany\projectsbd\ProkerUI$2.class
com\mycompany\projectsbd\DivisiUI$1.class
com\mycompany\projectsbd\DataUI$7.class
com\mycompany\projectsbd\PlotPKUI$3.class
com\mycompany\projectsbd\PangkatUI$7.class
com\mycompany\projectsbd\DataUI$3.class
com\mycompany\projectsbd\DivisiUI$2.class
com\mycompany\projectsbd\PlotPawasUI$3.class
com\mycompany\projectsbd\KeahlianUI.class
com\mycompany\projectsbd\MainUI$12.class
com\mycompany\projectsbd\PlotPawasUI$6.class
com\mycompany\projectsbd\DataUI$6.class
com\mycompany\projectsbd\DivisiUI$5.class
com\mycompany\projectsbd\PlotPKUI$2.class
com\mycompany\projectsbd\MainUI$7.class
com\mycompany\projectsbd\PlotProkerUI$3.class
com\mycompany\projectsbd\KeahlianUI$3.class
com\mycompany\projectsbd\BerandaUI$2.class
com\mycompany\projectsbd\MainUI$4.class
com\mycompany\projectsbd\PangkatUI$5.class
com\mycompany\projectsbd\PlotKadivUI$3.class
com\mycompany\projectsbd\ProkerUI$4.class
com\mycompany\projectsbd\KeahlianUI$6.class
com\mycompany\projectsbd\PangkatUI.class
com\mycompany\projectsbd\MainUI$2.class
com\mycompany\projectsbd\PangkatUI$2.class
com\mycompany\projectsbd\PlotSpvUI$1.class
com\mycompany\projectsbd\PlotProkerUI.class
com\mycompany\projectsbd\KaryawanUI$5.class
com\mycompany\projectsbd\PlotSpvUI$4.class
com\mycompany\projectsbd\PlotSpvUI$3.class
com\mycompany\projectsbd\KeahlianUI$5.class
com\mycompany\projectsbd\DivisiUI$4.class
com\mycompany\projectsbd\PlotPawasUI$1.class
com\mycompany\projectsbd\ProkerUI$5.class
com\mycompany\projectsbd\PlotPawasUI.class
com\mycompany\projectsbd\KaryawanUI$6.class
com\mycompany\projectsbd\MainUI.class
com\mycompany\projectsbd\MainUI$11.class
com\mycompany\projectsbd\PangkatUI$3.class
com\mycompany\projectsbd\PlotPawasUI$2.class
com\mycompany\projectsbd\MainUI$9.class
com\mycompany\projectsbd\PlotSpvUI$2.class
com\mycompany\projectsbd\DataUI$4.class
com\mycompany\projectsbd\BerandaUI$4.class
com\mycompany\projectsbd\PlotProkerUI$2.class
com\mycompany\projectsbd\ProkerUI.class
com\mycompany\projectsbd\KaryawanUI$7.class
com\mycompany\projectsbd\MainUI$3.class
com\mycompany\projectsbd\PlotKadivUI$5.class
com\mycompany\projectsbd\KeahlianUI$4.class
